%YAML 1.1
%TAG !u! tag:unity3d.com,2011:
--- !u!78 &1
TagManager:
  serializedVersion: 2
  tags:
  - Slow
  layers:
  - Default
  - TransparentFX
  - Ignore Raycast
  - 
  - Water
  - UI
  - 
  - 
  - Collision
  - CameraCollision
  - Dusk
  - Carrot
  - 
  - 
  - 
  - 
  - 
  - 
  - 
  - 
  - 
  - 
  - 
  - 
  - 
  - 
  - 
  - 
  - 
  - 
  - 
  - 
  m_SortingLayers:
  - name: Default
    uniqueID: 0
    locked: 0
  - name: World
    uniqueID: 2196273415
    locked: 0
  - name: Hover
    uniqueID: 2262085797
    locked: 0
  - name: UIParticles
    uniqueID: 3318134963
    locked: 0
